test/output_n.vcd
$date
    Date Text: 
$end
$version
    VCD generator V0.0.1
$end
$comment
    Revision information
$version
$timescale 1ps $end
$scope module CLK $end
$var wire 1 !! CLOCK $end
$upscope $end
$scope module ELA0 $end
$scope module TRACE_0_ $end
$var wire 1 !" awvalid $end
$var wire 1 !# awready $end
$var wire 7 !$ awid $end
$var wire 48 !% awaddr $end
$var wire 4 !& awregion $end
$var wire 8 !' awlen $end
$var wire 3 !( awsize $end
$var wire 2 !) awburst $end
$var wire 1 !* awlock $end
$var wire 4 !+ awcache $end
$var wire 3 !, awprot $end
$var wire 1 !- awnse $end
$var wire 4 !. awqos $end
$var wire 4 !/ awuser $end
$var wire 2 !0 awdomain $end
$var wire 4 !1 awsnoop $end
$var wire 11 !2 awstashnid $end
$var wire 1 !3 awstashniden $end
$var wire 5 !4 awstashpid $end
$var wire 1 !5 awstashpiden $end
$var wire 1 !6 awtrace $end
$var wire 4 !7 awloop $end
$var wire 1 !8 awmmuvalid $end
$var wire 4 !9 awmmusecid $end
$var wire 4 !: awmmusid $end
$upscope $end
$scope module TRACE_1_ $end
$var wire 1 !; awvalid $end
$var wire 1 !< awready $end
$var wire 7 != awid $end
$var wire 48 !> awaddr $end
$var wire 4 !? awregion $end
$var wire 8 !@ awlen $end
$var wire 3 !A awsize $end
$var wire 2 !B awburst $end
$var wire 1 !C awlock $end
$var wire 4 !D awcache $end
$var wire 3 !E awprot $end
$var wire 1 !F awnse $end
$var wire 4 !G awqos $end
$var wire 4 !H awuser $end
$var wire 2 !I awdomain $end
$var wire 4 !J awsnoop $end
$var wire 11 !K awstashnid $end
$var wire 1 !L awstashniden $end
$var wire 5 !M awstashpid $end
$var wire 1 !N awstashpiden $end
$var wire 1 !O awtrace $end
$var wire 4 !P awloop $end
$var wire 1 !Q awmmuvalid $end
$var wire 4 !R awmmusecid $end
$var wire 4 !S awmmusid $end
$upscope $end
$scope module TRACE_2_ $end
$var wire 1 !T awvalid $end
$var wire 1 !U awready $end
$var wire 7 !V awid $end
$var wire 48 !W awaddr $end
$var wire 4 !X awregion $end
$var wire 8 !Y awlen $end
$var wire 3 !Z awsize $end
$var wire 2 ![ awburst $end
$var wire 1 !\ awlock $end
$var wire 4 !] awcache $end
$var wire 3 !^ awprot $end
$var wire 1 !_ awnse $end
$var wire 4 !` awqos $end
$var wire 4 !a awuser $end
$var wire 2 !b awdomain $end
$var wire 4 !c awsnoop $end
$var wire 11 !d awstashnid $end
$var wire 1 !e awstashniden $end
$var wire 5 !f awstashpid $end
$var wire 1 !g awstashpiden $end
$var wire 1 !h awtrace $end
$var wire 4 !i awloop $end
$var wire 1 !j awmmuvalid $end
$var wire 4 !k awmmusecid $end
$var wire 4 !l awmmusid $end
$upscope $end
$scope module TRACE_3_ $end
$var wire 1 !m awvalid $end
$var wire 1 !n awready $end
$var wire 7 !o awid $end
$var wire 48 !p awaddr $end
$var wire 4 !q awregion $end
$var wire 8 !r awlen $end
$var wire 3 !s awsize $end
$var wire 2 !t awburst $end
$var wire 1 !u awlock $end
$var wire 4 !v awcache $end
$var wire 3 !w awprot $end
$var wire 1 !x awnse $end
$var wire 4 !y awqos $end
$var wire 4 !z awuser $end
$var wire 2 !{ awdomain $end
$var wire 4 !| awsnoop $end
$var wire 11 !} awstashnid $end
$var wire 1 !~ awstashniden $end
$var wire 5 "! awstashpid $end
$var wire 1 "" awstashpiden $end
$var wire 1 "# awtrace $end
$var wire 4 "$ awloop $end
$var wire 1 "% awmmuvalid $end
$var wire 4 "& awmmusecid $end
$var wire 4 "' awmmusid $end
$upscope $end
$scope module TRACE_4_ $end
$var wire 128 "( arraw $end
$upscope $end
$scope module TRACE_5_ $end
$var wire 128 ") arraw $end
$upscope $end
$scope module TRACE_6_ $end
$var wire 128 "* arraw $end
$upscope $end
$scope module TRACE_7_ $end
$var wire 128 "+ arraw $end
$upscope $end
$upscope $end
$scope module ELA1 $end
$scope module TRACE_0_ $end
$var wire 1 ", awvalid $end
$var wire 1 "- awready $end
$var wire 7 ". awid $end
$var wire 48 "/ awaddr $end
$var wire 4 "0 awregion $end
$var wire 8 "1 awlen $end
$var wire 3 "2 awsize $end
$var wire 2 "3 awburst $end
$var wire 1 "4 awlock $end
$var wire 4 "5 awcache $end
$var wire 3 "6 awprot $end
$var wire 1 "7 awnse $end
$var wire 4 "8 awqos $end
$var wire 4 "9 awuser $end
$var wire 2 ": awdomain $end
$var wire 4 "; awsnoop $end
$var wire 11 "< awstashnid $end
$var wire 1 "= awstashniden $end
$var wire 5 "> awstashpid $end
$var wire 1 "? awstashpiden $end
$var wire 1 "@ awtrace $end
$var wire 4 "A awloop $end
$var wire 1 "B awmmuvalid $end
$var wire 4 "C awmmusecid $end
$var wire 4 "D awmmusid $end
$upscope $end
$scope module TRACE_1_ $end
$var wire 1 "E awvalid $end
$var wire 1 "F awready $end
$var wire 7 "G awid $end
$var wire 48 "H awaddr $end
$var wire 4 "I awregion $end
$var wire 8 "J awlen $end
$var wire 3 "K awsize $end
$var wire 2 "L awburst $end
$var wire 1 "M awlock $end
$var wire 4 "N awcache $end
$var wire 3 "O awprot $end
$var wire 1 "P awnse $end
$var wire 4 "Q awqos $end
$var wire 4 "R awuser $end
$var wire 2 "S awdomain $end
$var wire 4 "T awsnoop $end
$var wire 11 "U awstashnid $end
$var wire 1 "V awstashniden $end
$var wire 5 "W awstashpid $end
$var wire 1 "X awstashpiden $end
$var wire 1 "Y awtrace $end
$var wire 4 "Z awloop $end
$var wire 1 "[ awmmuvalid $end
$var wire 4 "\ awmmusecid $end
$var wire 4 "] awmmusid $end
$upscope $end
$scope module TRACE_2_ $end
$var wire 1 "^ awvalid $end
$var wire 1 "_ awready $end
$var wire 7 "` awid $end
$var wire 48 "a awaddr $end
$var wire 4 "b awregion $end
$var wire 8 "c awlen $end
$var wire 3 "d awsize $end
$var wire 2 "e awburst $end
$var wire 1 "f awlock $end
$var wire 4 "g awcache $end
$var wire 3 "h awprot $end
$var wire 1 "i awnse $end
$var wire 4 "j awqos $end
$var wire 4 "k awuser $end
$var wire 2 "l awdomain $end
$var wire 4 "m awsnoop $end
$var wire 11 "n awstashnid $end
$var wire 1 "o awstashniden $end
$var wire 5 "p awstashpid $end
$var wire 1 "q awstashpiden $end
$var wire 1 "r awtrace $end
$var wire 4 "s awloop $end
$var wire 1 "t awmmuvalid $end
$var wire 4 "u awmmusecid $end
$var wire 4 "v awmmusid $end
$upscope $end
$scope module TRACE_3_ $end
$var wire 1 "w awvalid $end
$var wire 1 "x awready $end
$var wire 7 "y awid $end
$var wire 48 "z awaddr $end
$var wire 4 "{ awregion $end
$var wire 8 "| awlen $end
$var wire 3 "} awsize $end
$var wire 2 "~ awburst $end
$var wire 1 #! awlock $end
$var wire 4 #" awcache $end
$var wire 3 ## awprot $end
$var wire 1 #$ awnse $end
$var wire 4 #% awqos $end
$var wire 4 #& awuser $end
$var wire 2 #' awdomain $end
$var wire 4 #( awsnoop $end
$var wire 11 #) awstashnid $end
$var wire 1 #* awstashniden $end
$var wire 5 #+ awstashpid $end
$var wire 1 #, awstashpiden $end
$var wire 1 #- awtrace $end
$var wire 4 #. awloop $end
$var wire 1 #/ awmmuvalid $end
$var wire 4 #0 awmmusecid $end
$var wire 4 #1 awmmusid $end
$upscope $end
$scope module TRACE_4_ $end
$var wire 128 #2 arraw $end
$upscope $end
$scope module TRACE_5_ $end
$var wire 128 #3 arraw $end
$upscope $end
$scope module TRACE_6_ $end
$var wire 128 #4 arraw $end
$upscope $end
$scope module TRACE_7_ $end
$var wire 128 #5 arraw $end
$upscope $end
$upscope $end
$scope module ELA2 $end
$scope module TRACE_0_ $end
$var wire 1 #6 awvalid $end
$var wire 1 #7 awready $end
$var wire 7 #8 awid $end
$var wire 48 #9 awaddr $end
$var wire 4 #: awregion $end
$var wire 8 #; awlen $end
$var wire 3 #< awsize $end
$var wire 2 #= awburst $end
$var wire 1 #> awlock $end
$var wire 4 #? awcache $end
$var wire 3 #@ awprot $end
$var wire 1 #A awnse $end
$var wire 4 #B awqos $end
$var wire 4 #C awuser $end
$var wire 2 #D awdomain $end
$var wire 4 #E awsnoop $end
$var wire 11 #F awstashnid $end
$var wire 1 #G awstashniden $end
$var wire 5 #H awstashpid $end
$var wire 1 #I awstashpiden $end
$var wire 1 #J awtrace $end
$var wire 4 #K awloop $end
$var wire 1 #L awmmuvalid $end
$var wire 4 #M awmmusecid $end
$var wire 4 #N awmmusid $end
$upscope $end
$scope module TRACE_1_ $end
$var wire 1 #O awvalid $end
$var wire 1 #P awready $end
$var wire 7 #Q awid $end
$var wire 48 #R awaddr $end
$var wire 4 #S awregion $end
$var wire 8 #T awlen $end
$var wire 3 #U awsize $end
$var wire 2 #V awburst $end
$var wire 1 #W awlock $end
$var wire 4 #X awcache $end
$var wire 3 #Y awprot $end
$var wire 1 #Z awnse $end
$var wire 4 #[ awqos $end
$var wire 4 #\ awuser $end
$var wire 2 #] awdomain $end
$var wire 4 #^ awsnoop $end
$var wire 11 #_ awstashnid $end
$var wire 1 #` awstashniden $end
$var wire 5 #a awstashpid $end
$var wire 1 #b awstashpiden $end
$var wire 1 #c awtrace $end
$var wire 4 #d awloop $end
$var wire 1 #e awmmuvalid $end
$var wire 4 #f awmmusecid $end
$var wire 4 #g awmmusid $end
$upscope $end
$scope module TRACE_2_ $end
$var wire 1 #h awvalid $end
$var wire 1 #i awready $end
$var wire 7 #j awid $end
$var wire 48 #k awaddr $end
$var wire 4 #l awregion $end
$var wire 8 #m awlen $end
$var wire 3 #n awsize $end
$var wire 2 #o awburst $end
$var wire 1 #p awlock $end
$var wire 4 #q awcache $end
$var wire 3 #r awprot $end
$var wire 1 #s awnse $end
$var wire 4 #t awqos $end
$var wire 4 #u awuser $end
$var wire 2 #v awdomain $end
$var wire 4 #w awsnoop $end
$var wire 11 #x awstashnid $end
$var wire 1 #y awstashniden $end
$var wire 5 #z awstashpid $end
$var wire 1 #{ awstashpiden $end
$var wire 1 #| awtrace $end
$var wire 4 #} awloop $end
$var wire 1 #~ awmmuvalid $end
$var wire 4 $! awmmusecid $end
$var wire 4 $" awmmusid $end
$upscope $end
$scope module TRACE_3_ $end
$var wire 1 $# awvalid $end
$var wire 1 $$ awready $end
$var wire 7 $% awid $end
$var wire 48 $& awaddr $end
$var wire 4 $' awregion $end
$var wire 8 $( awlen $end
$var wire 3 $) awsize $end
$var wire 2 $* awburst $end
$var wire 1 $+ awlock $end
$var wire 4 $, awcache $end
$var wire 3 $- awprot $end
$var wire 1 $. awnse $end
$var wire 4 $/ awqos $end
$var wire 4 $0 awuser $end
$var wire 2 $1 awdomain $end
$var wire 4 $2 awsnoop $end
$var wire 11 $3 awstashnid $end
$var wire 1 $4 awstashniden $end
$var wire 5 $5 awstashpid $end
$var wire 1 $6 awstashpiden $end
$var wire 1 $7 awtrace $end
$var wire 4 $8 awloop $end
$var wire 1 $9 awmmuvalid $end
$var wire 4 $: awmmusecid $end
$var wire 4 $; awmmusid $end
$upscope $end
$scope module TRACE_4_ $end
$var wire 128 $< arraw $end
$upscope $end
$scope module TRACE_5_ $end
$var wire 128 $= arraw $end
$upscope $end
$scope module TRACE_6_ $end
$var wire 128 $> arraw $end
$upscope $end
$scope module TRACE_7_ $end
$var wire 128 $? arraw $end
$upscope $end
$upscope $end
$scope module ELA3 $end
$scope module TRACE_0_ $end
$var wire 1 $@ awvalid $end
$var wire 1 $A awready $end
$var wire 7 $B awid $end
$var wire 48 $C awaddr $end
$var wire 4 $D awregion $end
$var wire 8 $E awlen $end
$var wire 3 $F awsize $end
$var wire 2 $G awburst $end
$var wire 1 $H awlock $end
$var wire 4 $I awcache $end
$var wire 3 $J awprot $end
$var wire 1 $K awnse $end
$var wire 4 $L awqos $end
$var wire 4 $M awuser $end
$var wire 2 $N awdomain $end
$var wire 4 $O awsnoop $end
$var wire 11 $P awstashnid $end
$var wire 1 $Q awstashniden $end
$var wire 5 $R awstashpid $end
$var wire 1 $S awstashpiden $end
$var wire 1 $T awtrace $end
$var wire 4 $U awloop $end
$var wire 1 $V awmmuvalid $end
$var wire 4 $W awmmusecid $end
$var wire 4 $X awmmusid $end
$upscope $end
$scope module TRACE_1_ $end
$var wire 1 $Y awvalid $end
$var wire 1 $Z awready $end
$var wire 7 $[ awid $end
$var wire 48 $\ awaddr $end
$var wire 4 $] awregion $end
$var wire 8 $^ awlen $end
$var wire 3 $_ awsize $end
$var wire 2 $` awburst $end
$var wire 1 $a awlock $end
$var wire 4 $b awcache $end
$var wire 3 $c awprot $end
$var wire 1 $d awnse $end
$var wire 4 $e awqos $end
$var wire 4 $f awuser $end
$var wire 2 $g awdomain $end
$var wire 4 $h awsnoop $end
$var wire 11 $i awstashnid $end
$var wire 1 $j awstashniden $end
$var wire 5 $k awstashpid $end
$var wire 1 $l awstashpiden $end
$var wire 1 $m awtrace $end
$var wire 4 $n awloop $end
$var wire 1 $o awmmuvalid $end
$var wire 4 $p awmmusecid $end
$var wire 4 $q awmmusid $end
$upscope $end
$scope module TRACE_2_ $end
$var wire 1 $r awvalid $end
$var wire 1 $s awready $end
$var wire 7 $t awid $end
$var wire 48 $u awaddr $end
$var wire 4 $v awregion $end
$var wire 8 $w awlen $end
$var wire 3 $x awsize $end
$var wire 2 $y awburst $end
$var wire 1 $z awlock $end
$var wire 4 ${ awcache $end
$var wire 3 $| awprot $end
$var wire 1 $} awnse $end
$var wire 4 $~ awqos $end
$var wire 4 %! awuser $end
$var wire 2 %" awdomain $end
$var wire 4 %# awsnoop $end
$var wire 11 %$ awstashnid $end
$var wire 1 %% awstashniden $end
$var wire 5 %& awstashpid $end
$var wire 1 %' awstashpiden $end
$var wire 1 %( awtrace $end
$var wire 4 %) awloop $end
$var wire 1 %* awmmuvalid $end
$var wire 4 %+ awmmusecid $end
$var wire 4 %, awmmusid $end
$upscope $end
$scope module TRACE_3_ $end
$var wire 1 %- awvalid $end
$var wire 1 %. awready $end
$var wire 7 %/ awid $end
$var wire 48 %0 awaddr $end
$var wire 4 %1 awregion $end
$var wire 8 %2 awlen $end
$var wire 3 %3 awsize $end
$var wire 2 %4 awburst $end
$var wire 1 %5 awlock $end
$var wire 4 %6 awcache $end
$var wire 3 %7 awprot $end
$var wire 1 %8 awnse $end
$var wire 4 %9 awqos $end
$var wire 4 %: awuser $end
$var wire 2 %; awdomain $end
$var wire 4 %< awsnoop $end
$var wire 11 %= awstashnid $end
$var wire 1 %> awstashniden $end
$var wire 5 %? awstashpid $end
$var wire 1 %@ awstashpiden $end
$var wire 1 %A awtrace $end
$var wire 4 %B awloop $end
$var wire 1 %C awmmuvalid $end
$var wire 4 %D awmmusecid $end
$var wire 4 %E awmmusid $end
$upscope $end
$scope module TRACE_4_ $end
$var wire 128 %F arraw $end
$upscope $end
$scope module TRACE_5_ $end
$var wire 128 %G arraw $end
$upscope $end
$scope module TRACE_6_ $end
$var wire 128 %H arraw $end
$upscope $end
$scope module TRACE_7_ $end
$var wire 128 %I arraw $end
$upscope $end
$upscope $end
$enddefinitions $end
#0                    
$dumpvars
x!!
x!"
x!#
bxxxxxxx !$
bxxxxxxxxxxxxxxxxxxxxxxxxxxxxxxxxxxxxxxxxxxxxxxxx !%
bxxxx !&
bxxxxxxxx !'
bxxx !(
bxx !)
x!*
bxxxx !+
bxxx !,
x!-
bxxxx !.
bxxxx !/
bxx !0
bxxxx !1
bxxxxxxxxxxx !2
x!3
bxxxxx !4
x!5
x!6
bxxxx !7
x!8
bxxxx !9
bxxxx !:
x!;
x!<
bxxxxxxx !=
bxxxxxxxxxxxxxxxxxxxxxxxxxxxxxxxxxxxxxxxxxxxxxxxx !>
bxxxx !?
bxxxxxxxx !@
bxxx !A
bxx !B
x!C
bxxxx !D
bxxx !E
x!F
bxxxx !G
bxxxx !H
bxx !I
bxxxx !J
bxxxxxxxxxxx !K
x!L
bxxxxx !M
x!N
x!O
bxxxx !P
x!Q
bxxxx !R
bxxxx !S
x!T
x!U
bxxxxxxx !V
bxxxxxxxxxxxxxxxxxxxxxxxxxxxxxxxxxxxxxxxxxxxxxxxx !W
bxxxx !X
bxxxxxxxx !Y
bxxx !Z
bxx ![
x!\
bxxxx !]
bxxx !^
x!_
bxxxx !`
bxxxx !a
bxx !b
bxxxx !c
bxxxxxxxxxxx !d
x!e
bxxxxx !f
x!g
x!h
bxxxx !i
x!j
bxxxx !k
bxxxx !l
x!m
x!n
bxxxxxxx !o
bxxxxxxxxxxxxxxxxxxxxxxxxxxxxxxxxxxxxxxxxxxxxxxxx !p
bxxxx !q
bxxxxxxxx !r
bxxx !s
bxx !t
x!u
bxxxx !v
bxxx !w
x!x
bxxxx !y
bxxxx !z
bxx !{
bxxxx !|
bxxxxxxxxxxx !}
x!~
bxxxxx "!
x""
x"#
bxxxx "$
x"%
bxxxx "&
bxxxx "'
bxxxxxxxxxxxxxxxxxxxxxxxxxxxxxxxxxxxxxxxxxxxxxxxxxxxxxxxxxxxxxxxxxxxxxxxxxxxxxxxxxxxxxxxxxxxxxxxxxxxxxxxxxxxxxxxxxxxxxxxxxxxxxxxx "(
bxxxxxxxxxxxxxxxxxxxxxxxxxxxxxxxxxxxxxxxxxxxxxxxxxxxxxxxxxxxxxxxxxxxxxxxxxxxxxxxxxxxxxxxxxxxxxxxxxxxxxxxxxxxxxxxxxxxxxxxxxxxxxxxx ")
bxxxxxxxxxxxxxxxxxxxxxxxxxxxxxxxxxxxxxxxxxxxxxxxxxxxxxxxxxxxxxxxxxxxxxxxxxxxxxxxxxxxxxxxxxxxxxxxxxxxxxxxxxxxxxxxxxxxxxxxxxxxxxxxx "*
bxxxxxxxxxxxxxxxxxxxxxxxxxxxxxxxxxxxxxxxxxxxxxxxxxxxxxxxxxxxxxxxxxxxxxxxxxxxxxxxxxxxxxxxxxxxxxxxxxxxxxxxxxxxxxxxxxxxxxxxxxxxxxxxx "+
x",
x"-
bxxxxxxx ".
bxxxxxxxxxxxxxxxxxxxxxxxxxxxxxxxxxxxxxxxxxxxxxxxx "/
bxxxx "0
bxxxxxxxx "1
bxxx "2
bxx "3
x"4
bxxxx "5
bxxx "6
x"7
bxxxx "8
bxxxx "9
bxx ":
bxxxx ";
bxxxxxxxxxxx "<
x"=
bxxxxx ">
x"?
x"@
bxxxx "A
x"B
bxxxx "C
bxxxx "D
x"E
x"F
bxxxxxxx "G
bxxxxxxxxxxxxxxxxxxxxxxxxxxxxxxxxxxxxxxxxxxxxxxxx "H
bxxxx "I
bxxxxxxxx "J
bxxx "K
bxx "L
x"M
bxxxx "N
bxxx "O
x"P
bxxxx "Q
bxxxx "R
bxx "S
bxxxx "T
bxxxxxxxxxxx "U
x"V
bxxxxx "W
x"X
x"Y
bxxxx "Z
x"[
bxxxx "\
bxxxx "]
x"^
x"_
bxxxxxxx "`
bxxxxxxxxxxxxxxxxxxxxxxxxxxxxxxxxxxxxxxxxxxxxxxxx "a
bxxxx "b
bxxxxxxxx "c
bxxx "d
bxx "e
x"f
bxxxx "g
bxxx "h
x"i
bxxxx "j
bxxxx "k
bxx "l
bxxxx "m
bxxxxxxxxxxx "n
x"o
bxxxxx "p
x"q
x"r
bxxxx "s
x"t
bxxxx "u
bxxxx "v
x"w
x"x
bxxxxxxx "y
bxxxxxxxxxxxxxxxxxxxxxxxxxxxxxxxxxxxxxxxxxxxxxxxx "z
bxxxx "{
bxxxxxxxx "|
bxxx "}
bxx "~
x#!
bxxxx #"
bxxx ##
x#$
bxxxx #%
bxxxx #&
bxx #'
bxxxx #(
bxxxxxxxxxxx #)
x#*
bxxxxx #+
x#,
x#-
bxxxx #.
x#/
bxxxx #0
bxxxx #1
bxxxxxxxxxxxxxxxxxxxxxxxxxxxxxxxxxxxxxxxxxxxxxxxxxxxxxxxxxxxxxxxxxxxxxxxxxxxxxxxxxxxxxxxxxxxxxxxxxxxxxxxxxxxxxxxxxxxxxxxxxxxxxxxx #2
bxxxxxxxxxxxxxxxxxxxxxxxxxxxxxxxxxxxxxxxxxxxxxxxxxxxxxxxxxxxxxxxxxxxxxxxxxxxxxxxxxxxxxxxxxxxxxxxxxxxxxxxxxxxxxxxxxxxxxxxxxxxxxxxx #3
bxxxxxxxxxxxxxxxxxxxxxxxxxxxxxxxxxxxxxxxxxxxxxxxxxxxxxxxxxxxxxxxxxxxxxxxxxxxxxxxxxxxxxxxxxxxxxxxxxxxxxxxxxxxxxxxxxxxxxxxxxxxxxxxx #4
bxxxxxxxxxxxxxxxxxxxxxxxxxxxxxxxxxxxxxxxxxxxxxxxxxxxxxxxxxxxxxxxxxxxxxxxxxxxxxxxxxxxxxxxxxxxxxxxxxxxxxxxxxxxxxxxxxxxxxxxxxxxxxxxx #5
x#6
x#7
bxxxxxxx #8
bxxxxxxxxxxxxxxxxxxxxxxxxxxxxxxxxxxxxxxxxxxxxxxxx #9
bxxxx #:
bxxxxxxxx #;
bxxx #<
bxx #=
x#>
bxxxx #?
bxxx #@
x#A
bxxxx #B
bxxxx #C
bxx #D
bxxxx #E
bxxxxxxxxxxx #F
x#G
bxxxxx #H
x#I
x#J
bxxxx #K
x#L
bxxxx #M
bxxxx #N
x#O
x#P
bxxxxxxx #Q
bxxxxxxxxxxxxxxxxxxxxxxxxxxxxxxxxxxxxxxxxxxxxxxxx #R
bxxxx #S
bxxxxxxxx #T
bxxx #U
bxx #V
x#W
bxxxx #X
bxxx #Y
x#Z
bxxxx #[
bxxxx #\
bxx #]
bxxxx #^
bxxxxxxxxxxx #_
x#`
bxxxxx #a
x#b
x#c
bxxxx #d
x#e
bxxxx #f
bxxxx #g
x#h
x#i
bxxxxxxx #j
bxxxxxxxxxxxxxxxxxxxxxxxxxxxxxxxxxxxxxxxxxxxxxxxx #k
bxxxx #l
bxxxxxxxx #m
bxxx #n
bxx #o
x#p
bxxxx #q
bxxx #r
x#s
bxxxx #t
bxxxx #u
bxx #v
bxxxx #w
bxxxxxxxxxxx #x
x#y
bxxxxx #z
x#{
x#|
bxxxx #}
x#~
bxxxx $!
bxxxx $"
x$#
x$$
bxxxxxxx $%
bxxxxxxxxxxxxxxxxxxxxxxxxxxxxxxxxxxxxxxxxxxxxxxxx $&
bxxxx $'
bxxxxxxxx $(
bxxx $)
bxx $*
x$+
bxxxx $,
bxxx $-
x$.
bxxxx $/
bxxxx $0
bxx $1
bxxxx $2
bxxxxxxxxxxx $3
x$4
bxxxxx $5
x$6
x$7
bxxxx $8
x$9
bxxxx $:
bxxxx $;
bxxxxxxxxxxxxxxxxxxxxxxxxxxxxxxxxxxxxxxxxxxxxxxxxxxxxxxxxxxxxxxxxxxxxxxxxxxxxxxxxxxxxxxxxxxxxxxxxxxxxxxxxxxxxxxxxxxxxxxxxxxxxxxxx $<
bxxxxxxxxxxxxxxxxxxxxxxxxxxxxxxxxxxxxxxxxxxxxxxxxxxxxxxxxxxxxxxxxxxxxxxxxxxxxxxxxxxxxxxxxxxxxxxxxxxxxxxxxxxxxxxxxxxxxxxxxxxxxxxxx $=
bxxxxxxxxxxxxxxxxxxxxxxxxxxxxxxxxxxxxxxxxxxxxxxxxxxxxxxxxxxxxxxxxxxxxxxxxxxxxxxxxxxxxxxxxxxxxxxxxxxxxxxxxxxxxxxxxxxxxxxxxxxxxxxxx $>
bxxxxxxxxxxxxxxxxxxxxxxxxxxxxxxxxxxxxxxxxxxxxxxxxxxxxxxxxxxxxxxxxxxxxxxxxxxxxxxxxxxxxxxxxxxxxxxxxxxxxxxxxxxxxxxxxxxxxxxxxxxxxxxxx $?
x$@
x$A
bxxxxxxx $B
bxxxxxxxxxxxxxxxxxxxxxxxxxxxxxxxxxxxxxxxxxxxxxxxx $C
bxxxx $D
bxxxxxxxx $E
bxxx $F
bxx $G
x$H
bxxxx $I
bxxx $J
x$K
bxxxx $L
bxxxx $M
bxx $N
bxxxx $O
bxxxxxxxxxxx $P
x$Q
bxxxxx $R
x$S
x$T
bxxxx $U
x$V
bxxxx $W
bxxxx $X
x$Y
x$Z
bxxxxxxx $[
bxxxxxxxxxxxxxxxxxxxxxxxxxxxxxxxxxxxxxxxxxxxxxxxx $\
bxxxx $]
bxxxxxxxx $^
bxxx $_
bxx $`
x$a
bxxxx $b
bxxx $c
x$d
bxxxx $e
bxxxx $f
bxx $g
bxxxx $h
bxxxxxxxxxxx $i
x$j
bxxxxx $k
x$l
x$m
bxxxx $n
x$o
bxxxx $p
bxxxx $q
x$r
x$s
bxxxxxxx $t
bxxxxxxxxxxxxxxxxxxxxxxxxxxxxxxxxxxxxxxxxxxxxxxxx $u
bxxxx $v
bxxxxxxxx $w
bxxx $x
bxx $y
x$z
bxxxx ${
bxxx $|
x$}
bxxxx $~
bxxxx %!
bxx %"
bxxxx %#
bxxxxxxxxxxx %$
x%%
bxxxxx %&
x%'
x%(
bxxxx %)
x%*
bxxxx %+
bxxxx %,
x%-
x%.
bxxxxxxx %/
bxxxxxxxxxxxxxxxxxxxxxxxxxxxxxxxxxxxxxxxxxxxxxxxx %0
bxxxx %1
bxxxxxxxx %2
bxxx %3
bxx %4
x%5
bxxxx %6
bxxx %7
x%8
bxxxx %9
bxxxx %:
bxx %;
bxxxx %<
bxxxxxxxxxxx %=
x%>
bxxxxx %?
x%@
x%A
bxxxx %B
x%C
bxxxx %D
bxxxx %E
bxxxxxxxxxxxxxxxxxxxxxxxxxxxxxxxxxxxxxxxxxxxxxxxxxxxxxxxxxxxxxxxxxxxxxxxxxxxxxxxxxxxxxxxxxxxxxxxxxxxxxxxxxxxxxxxxxxxxxxxxxxxxxxxx %F
bxxxxxxxxxxxxxxxxxxxxxxxxxxxxxxxxxxxxxxxxxxxxxxxxxxxxxxxxxxxxxxxxxxxxxxxxxxxxxxxxxxxxxxxxxxxxxxxxxxxxxxxxxxxxxxxxxxxxxxxxxxxxxxxx %G
bxxxxxxxxxxxxxxxxxxxxxxxxxxxxxxxxxxxxxxxxxxxxxxxxxxxxxxxxxxxxxxxxxxxxxxxxxxxxxxxxxxxxxxxxxxxxxxxxxxxxxxxxxxxxxxxxxxxxxxxxxxxxxxxx %H
bxxxxxxxxxxxxxxxxxxxxxxxxxxxxxxxxxxxxxxxxxxxxxxxxxxxxxxxxxxxxxxxxxxxxxxxxxxxxxxxxxxxxxxxxxxxxxxxxxxxxxxxxxxxxxxxxxxxxxxxxxxxxxxxx %I
0!!
0!"
0!#
b0000000 !$
b000000000000000000000000000000000000000000000000 !%
b0000 !&
b00000000 !'
b000 !(
b00 !)
0!*
b0000 !+
b000 !,
0!-
b0000 !.
b0000 !/
b00 !0
b0000 !1
b00000000000 !2
0!3
b00000 !4
0!5
0!6
b0000 !7
0!8
b0000 !9
#1
1!!
#2
0!!
1!"
0!#
b1000000 !$
b000000000000000010000000100000001000000010000000 !%
#3
1!!
#4
0!!
0!"
1!#
b0000000 !$
b000000000000000100000001000000010000000100000001 !%
#5
1!!
#6
0!!
1!"
1!#
b1000000 !$
b000000000000000110000001100000011000000110000001 !%
#7
1!!
#8
0!!
0!"
0!#
b0000001 !$
b000000000000001000000010000000100000001000000010 !%
#9
1!!
#10
0!!
1!"
0!#
b1000001 !$
b000000000000001010000010100000101000001010000010 !%
#11
1!!
#12
0!!
0!"
1!#
b0000001 !$
b000000000000001100000011000000110000001100000011 !%
#13
1!!
#14
0!!
1!"
1!#
b1000001 !$
b000000000000001110000011100000111000001110000011 !%
#15
1!!
#16
0!!
0!"
0!#
b0000010 !$
b000000000000010000000100000001000000010000000100 !%
#17
1!!
#18
0!!
1!"
0!#
b1000010 !$
b000000000000010010000100100001001000010010000100 !%
#19
1!!
#20
DONE!!!
